{
    "assets": [
        {
            "root": "assets",
            "project": "potoodev",
            "group_1": "chAsunaPilot",
            "relation": "com",
            "leaf_group_name": "chAsunaPilot",
            "group_category_path": "",
            "top_group_node": "",
            "mdl_work_status": null,
            "mdl_approval_status": null,
            "mdl_submitted_at_utc": null,
            "rig_work_status": null,
            "rig_approval_status": null,
            "rig_submitted_at_utc": null,
            "bld_work_status": "check",
            "bld_approval_status": "check",
            "bld_submitted_at_utc": "2021-06-25T07:07:35.792Z",
            "dsn_work_status": null,
            "dsn_approval_status": null,
            "dsn_submitted_at_utc": null,
            "ldv_work_status": null,
            "ldv_approval_status": null,
            "ldv_submitted_at_utc": null
        },
        {
            "root": "assets",
            "project": "potoodev",
            "group_1": "test",
            "relation": "com",
            "leaf_group_name": "test",
            "group_category_path": "",
            "top_group_node": "",
            "mdl_work_status": "check",
            "mdl_approval_status": "check",
            "mdl_submitted_at_utc": "2025-08-04T06:24:54.836574Z",
            "rig_work_status": null,
            "rig_approval_status": null,
            "rig_submitted_at_utc": null,
            "bld_work_status": null,
            "bld_approval_status": null,
            "bld_submitted_at_utc": null,
            "dsn_work_status": "check",
            "dsn_approval_status": "check",
            "dsn_submitted_at_utc": "2024-04-30T07:59:21.782462Z",
            "ldv_work_status": null,
            "ldv_approval_status": null,
            "ldv_submitted_at_utc": null
        },
        {
            "root": "assets",
            "project": "potoodev",
            "group_1": "test",
            "relation": "rndCheck",
            "leaf_group_name": "test",
            "group_category_path": "",
            "top_group_node": "",
            "mdl_work_status": "check",
            "mdl_approval_status": "check",
            "mdl_submitted_at_utc": "2023-01-11T11:26:30.776412Z",
            "rig_work_status": null,
            "rig_approval_status": null,
            "rig_submitted_at_utc": null,
            "bld_work_status": null,
            "bld_approval_status": null,
            "bld_submitted_at_utc": null,
            "dsn_work_status": "check",
            "dsn_approval_status": "check",
            "dsn_submitted_at_utc": "2024-04-15T06:03:52.326529Z",
            "ldv_work_status": null,
            "ldv_approval_status": null,
            "ldv_submitted_at_utc": null
        },
        {
            "root": "assets",
            "project": "potoodev",
            "group_1": "testCamHero",
            "relation": "com",
            "leaf_group_name": "testCamHero",
            "group_category_path": "",
            "top_group_node": "",
            "mdl_work_status": null,
            "mdl_approval_status": null,
            "mdl_submitted_at_utc": null,
            "rig_work_status": null,
            "rig_approval_status": null,
            "rig_submitted_at_utc": null,
            "bld_work_status": "check",
            "bld_approval_status": "check",
            "bld_submitted_at_utc": "2022-07-18T23:00:23.210394Z",
            "dsn_work_status": null,
            "dsn_approval_status": null,
            "dsn_submitted_at_utc": null,
            "ldv_work_status": null,
            "ldv_approval_status": null,
            "ldv_submitted_at_utc": null
        },
        {
            "root": "assets",
            "project": "potoodev",
            "group_1": "testSD5071",
            "relation": "com",
            "leaf_group_name": "testSD5071",
            "group_category_path": "",
            "top_group_node": "",
            "mdl_work_status": "check",
            "mdl_approval_status": "check",
            "mdl_submitted_at_utc": "2025-04-16T07:26:15.625126Z",
            "rig_work_status": null,
            "rig_approval_status": null,
            "rig_submitted_at_utc": null,
            "bld_work_status": null,
            "bld_approval_status": null,
            "bld_submitted_at_utc": null,
            "dsn_work_status": null,
            "dsn_approval_status": null,
            "dsn_submitted_at_utc": null,
            "ldv_work_status": "check",
            "ldv_approval_status": "check",
            "ldv_submitted_at_utc": "2025-04-16T07:39:01.319572Z"
        },
        {
            "root": "assets",
            "project": "potoodev",
            "group_1": "camAim",
            "relation": "com",
            "leaf_group_name": "camAim",
            "group_category_path": "camera/cam",
            "top_group_node": "camera",
            "mdl_work_status": "check",
            "mdl_approval_status": "check",
            "mdl_submitted_at_utc": "2025-12-08T23:28:42.698559Z",
            "rig_work_status": null,
            "rig_approval_status": null,
            "rig_submitted_at_utc": null,
            "bld_work_status": "review",
            "bld_approval_status": "approved",
            "bld_submitted_at_utc": "2020-08-26T05:56:03.092935Z",
            "dsn_work_status": null,
            "dsn_approval_status": null,
            "dsn_submitted_at_utc": null,
            "ldv_work_status": null,
            "ldv_approval_status": null,
            "ldv_submitted_at_utc": null
        },
        {
            "root": "assets",
            "project": "potoodev",
            "group_1": "camHero",
            "relation": "com",
            "leaf_group_name": "camHero",
            "group_category_path": "camera/cam",
            "top_group_node": "camera",
            "mdl_work_status": null,
            "mdl_approval_status": null,
            "mdl_submitted_at_utc": null,
            "rig_work_status": null,
            "rig_approval_status": null,
            "rig_submitted_at_utc": null,
            "bld_work_status": "review",
            "bld_approval_status": "approved",
            "bld_submitted_at_utc": "2020-08-26T05:56:37.383377Z",
            "dsn_work_status": null,
            "dsn_approval_status": null,
            "dsn_submitted_at_utc": null,
            "ldv_work_status": null,
            "ldv_approval_status": null,
            "ldv_submitted_at_utc": null
        },
        {
            "root": "assets",
            "project": "potoodev",
            "group_1": "ichiroHero",
            "relation": "com",
            "leaf_group_name": "ichiroHero",
            "group_category_path": "character/IchiroYamada",
            "top_group_node": "character",
            "mdl_work_status": "check",
            "mdl_approval_status": "check",
            "mdl_submitted_at_utc": "2022-11-08T07:52:32.719017Z",
            "rig_work_status": null,
            "rig_approval_status": null,
            "rig_submitted_at_utc": null,
            "bld_work_status": "check",
            "bld_approval_status": "check",
            "bld_submitted_at_utc": "2022-11-25T01:56:54.658723Z",
            "dsn_work_status": null,
            "dsn_approval_status": null,
            "dsn_submitted_at_utc": null,
            "ldv_work_status": null,
            "ldv_approval_status": null,
            "ldv_submitted_at_utc": null
        },
        {
            "root": "assets",
            "project": "potoodev",
            "group_1": "izanaCyborgCasual",
            "relation": "com",
            "leaf_group_name": "izanaCyborgCasual",
            "group_category_path": "character/izana",
            "top_group_node": "character",
            "mdl_work_status": null,
            "mdl_approval_status": null,
            "mdl_submitted_at_utc": null,
            "rig_work_status": null,
            "rig_approval_status": null,
            "rig_submitted_at_utc": null,
            "bld_work_status": "review",
            "bld_approval_status": "approved",
            "bld_submitted_at_utc": "2020-08-26T06:19:52.884034Z",
            "dsn_work_status": null,
            "dsn_approval_status": null,
            "dsn_submitted_at_utc": null,
            "ldv_work_status": null,
            "ldv_approval_status": null,
            "ldv_submitted_at_utc": null
        },
        {
            "root": "assets",
            "project": "potoodev",
            "group_1": "nagateCasual",
            "relation": "com",
            "leaf_group_name": "nagateCasual",
            "group_category_path": "character/nagate",
            "top_group_node": "character",
            "mdl_work_status": null,
            "mdl_approval_status": null,
            "mdl_submitted_at_utc": null,
            "rig_work_status": null,
            "rig_approval_status": null,
            "rig_submitted_at_utc": null,
            "bld_work_status": "review",
            "bld_approval_status": "approved",
            "bld_submitted_at_utc": "2020-08-26T06:20:47.61822Z",
            "dsn_work_status": null,
            "dsn_approval_status": null,
            "dsn_submitted_at_utc": null,
            "ldv_work_status": null,
            "ldv_approval_status": null,
            "ldv_submitted_at_utc": null
        }
    ],
    "dir": "asc",
    "groups": [
        {
            "top_group_node": "Unassigned",
            "items": [
                {
                    "root": "assets",
                    "project": "potoodev",
                    "group_1": "chAsunaPilot",
                    "relation": "com",
                    "leaf_group_name": "chAsunaPilot",
                    "group_category_path": "",
                    "top_group_node": "",
                    "mdl_work_status": null,
                    "mdl_approval_status": null,
                    "mdl_submitted_at_utc": null,
                    "rig_work_status": null,
                    "rig_approval_status": null,
                    "rig_submitted_at_utc": null,
                    "bld_work_status": "check",
                    "bld_approval_status": "check",
                    "bld_submitted_at_utc": "2021-06-25T07:07:35.792Z",
                    "dsn_work_status": null,
                    "dsn_approval_status": null,
                    "dsn_submitted_at_utc": null,
                    "ldv_work_status": null,
                    "ldv_approval_status": null,
                    "ldv_submitted_at_utc": null
                },
                {
                    "root": "assets",
                    "project": "potoodev",
                    "group_1": "test",
                    "relation": "com",
                    "leaf_group_name": "test",
                    "group_category_path": "",
                    "top_group_node": "",
                    "mdl_work_status": "check",
                    "mdl_approval_status": "check",
                    "mdl_submitted_at_utc": "2025-08-04T06:24:54.836574Z",
                    "rig_work_status": null,
                    "rig_approval_status": null,
                    "rig_submitted_at_utc": null,
                    "bld_work_status": null,
                    "bld_approval_status": null,
                    "bld_submitted_at_utc": null,
                    "dsn_work_status": "check",
                    "dsn_approval_status": "check",
                    "dsn_submitted_at_utc": "2024-04-30T07:59:21.782462Z",
                    "ldv_work_status": null,
                    "ldv_approval_status": null,
                    "ldv_submitted_at_utc": null
                },
                {
                    "root": "assets",
                    "project": "potoodev",
                    "group_1": "test",
                    "relation": "rndCheck",
                    "leaf_group_name": "test",
                    "group_category_path": "",
                    "top_group_node": "",
                    "mdl_work_status": "check",
                    "mdl_approval_status": "check",
                    "mdl_submitted_at_utc": "2023-01-11T11:26:30.776412Z",
                    "rig_work_status": null,
                    "rig_approval_status": null,
                    "rig_submitted_at_utc": null,
                    "bld_work_status": null,
                    "bld_approval_status": null,
                    "bld_submitted_at_utc": null,
                    "dsn_work_status": "check",
                    "dsn_approval_status": "check",
                    "dsn_submitted_at_utc": "2024-04-15T06:03:52.326529Z",
                    "ldv_work_status": null,
                    "ldv_approval_status": null,
                    "ldv_submitted_at_utc": null
                },
                {
                    "root": "assets",
                    "project": "potoodev",
                    "group_1": "testCamHero",
                    "relation": "com",
                    "leaf_group_name": "testCamHero",
                    "group_category_path": "",
                    "top_group_node": "",
                    "mdl_work_status": null,
                    "mdl_approval_status": null,
                    "mdl_submitted_at_utc": null,
                    "rig_work_status": null,
                    "rig_approval_status": null,
                    "rig_submitted_at_utc": null,
                    "bld_work_status": "check",
                    "bld_approval_status": "check",
                    "bld_submitted_at_utc": "2022-07-18T23:00:23.210394Z",
                    "dsn_work_status": null,
                    "dsn_approval_status": null,
                    "dsn_submitted_at_utc": null,
                    "ldv_work_status": null,
                    "ldv_approval_status": null,
                    "ldv_submitted_at_utc": null
                },
                {
                    "root": "assets",
                    "project": "potoodev",
                    "group_1": "testSD5071",
                    "relation": "com",
                    "leaf_group_name": "testSD5071",
                    "group_category_path": "",
                    "top_group_node": "",
                    "mdl_work_status": "check",
                    "mdl_approval_status": "check",
                    "mdl_submitted_at_utc": "2025-04-16T07:26:15.625126Z",
                    "rig_work_status": null,
                    "rig_approval_status": null,
                    "rig_submitted_at_utc": null,
                    "bld_work_status": null,
                    "bld_approval_status": null,
                    "bld_submitted_at_utc": null,
                    "dsn_work_status": null,
                    "dsn_approval_status": null,
                    "dsn_submitted_at_utc": null,
                    "ldv_work_status": "check",
                    "ldv_approval_status": "check",
                    "ldv_submitted_at_utc": "2025-04-16T07:39:01.319572Z"
                }
            ]
        },
        {
            "top_group_node": "camera",
            "items": [
                {
                    "root": "assets",
                    "project": "potoodev",
                    "group_1": "camAim",
                    "relation": "com",
                    "leaf_group_name": "camAim",
                    "group_category_path": "camera/cam",
                    "top_group_node": "camera",
                    "mdl_work_status": "check",
                    "mdl_approval_status": "check",
                    "mdl_submitted_at_utc": "2025-12-08T23:28:42.698559Z",
                    "rig_work_status": null,
                    "rig_approval_status": null,
                    "rig_submitted_at_utc": null,
                    "bld_work_status": "review",
                    "bld_approval_status": "approved",
                    "bld_submitted_at_utc": "2020-08-26T05:56:03.092935Z",
                    "dsn_work_status": null,
                    "dsn_approval_status": null,
                    "dsn_submitted_at_utc": null,
                    "ldv_work_status": null,
                    "ldv_approval_status": null,
                    "ldv_submitted_at_utc": null
                },
                {
                    "root": "assets",
                    "project": "potoodev",
                    "group_1": "camHero",
                    "relation": "com",
                    "leaf_group_name": "camHero",
                    "group_category_path": "camera/cam",
                    "top_group_node": "camera",
                    "mdl_work_status": null,
                    "mdl_approval_status": null,
                    "mdl_submitted_at_utc": null,
                    "rig_work_status": null,
                    "rig_approval_status": null,
                    "rig_submitted_at_utc": null,
                    "bld_work_status": "review",
                    "bld_approval_status": "approved",
                    "bld_submitted_at_utc": "2020-08-26T05:56:37.383377Z",
                    "dsn_work_status": null,
                    "dsn_approval_status": null,
                    "dsn_submitted_at_utc": null,
                    "ldv_work_status": null,
                    "ldv_approval_status": null,
                    "ldv_submitted_at_utc": null
                }
            ]
        },
        {
            "top_group_node": "character",
            "items": [
                {
                    "root": "assets",
                    "project": "potoodev",
                    "group_1": "ichiroHero",
                    "relation": "com",
                    "leaf_group_name": "ichiroHero",
                    "group_category_path": "character/IchiroYamada",
                    "top_group_node": "character",
                    "mdl_work_status": "check",
                    "mdl_approval_status": "check",
                    "mdl_submitted_at_utc": "2022-11-08T07:52:32.719017Z",
                    "rig_work_status": null,
                    "rig_approval_status": null,
                    "rig_submitted_at_utc": null,
                    "bld_work_status": "check",
                    "bld_approval_status": "check",
                    "bld_submitted_at_utc": "2022-11-25T01:56:54.658723Z",
                    "dsn_work_status": null,
                    "dsn_approval_status": null,
                    "dsn_submitted_at_utc": null,
                    "ldv_work_status": null,
                    "ldv_approval_status": null,
                    "ldv_submitted_at_utc": null
                },
                {
                    "root": "assets",
                    "project": "potoodev",
                    "group_1": "izanaCyborgCasual",
                    "relation": "com",
                    "leaf_group_name": "izanaCyborgCasual",
                    "group_category_path": "character/izana",
                    "top_group_node": "character",
                    "mdl_work_status": null,
                    "mdl_approval_status": null,
                    "mdl_submitted_at_utc": null,
                    "rig_work_status": null,
                    "rig_approval_status": null,
                    "rig_submitted_at_utc": null,
                    "bld_work_status": "review",
                    "bld_approval_status": "approved",
                    "bld_submitted_at_utc": "2020-08-26T06:19:52.884034Z",
                    "dsn_work_status": null,
                    "dsn_approval_status": null,
                    "dsn_submitted_at_utc": null,
                    "ldv_work_status": null,
                    "ldv_approval_status": null,
                    "ldv_submitted_at_utc": null
                },
                {
                    "root": "assets",
                    "project": "potoodev",
                    "group_1": "nagateCasual",
                    "relation": "com",
                    "leaf_group_name": "nagateCasual",
                    "group_category_path": "character/nagate",
                    "top_group_node": "character",
                    "mdl_work_status": null,
                    "mdl_approval_status": null,
                    "mdl_submitted_at_utc": null,
                    "rig_work_status": null,
                    "rig_approval_status": null,
                    "rig_submitted_at_utc": null,
                    "bld_work_status": "review",
                    "bld_approval_status": "approved",
                    "bld_submitted_at_utc": "2020-08-26T06:20:47.61822Z",
                    "dsn_work_status": null,
                    "dsn_approval_status": null,
                    "dsn_submitted_at_utc": null,
                    "ldv_work_status": null,
                    "ldv_approval_status": null,
                    "ldv_submitted_at_utc": null
                }
            ]
        }
    ],
    "has_next": true,
    "has_prev": false,
    "page": 1,
    "page_last": 4,
    "per_page": 10,
    "project": "potoodev",
    "root": "assets",
    "sort": "group_1",
    "total": 33,
    "view": "grouped"
}