{
    "dir": "asc",
    "groups": [
        {
            "top_group_node": "character",
            "items": [
                {
                    "root": "assets",
                    "project": "potoodev",
                    "group_1": "testAssetD",
                    "relation": "com",
                    "leaf_group_name": "testAssetD",
                    "group_category_path": "character/testAsset",
                    "top_group_node": "character",
                    "mdl_work_status": "check",
                    "mdl_approval_status": "check",
                    "mdl_submitted_at_utc": "2021-03-22T11:42:52.537816Z",
                    "rig_work_status": null,
                    "rig_approval_status": null,
                    "rig_submitted_at_utc": null,
                    "bld_work_status": "svApproved",
                    "bld_approval_status": "dirReview",
                    "bld_submitted_at_utc": "2022-03-31T15:19:03.478885Z",
                    "dsn_work_status": "cgsvApproved",
                    "dsn_approval_status": "dirApproved",
                    "dsn_submitted_at_utc": "2022-02-18T06:43:57.210574Z",
                    "ldv_work_status": "check",
                    "ldv_approval_status": "check",
                    "ldv_submitted_at_utc": "2021-03-21T15:53:56.41833Z"
                },
                {
                    "root": "assets",
                    "project": "potoodev",
                    "group_1": "testAssetE",
                    "relation": "com",
                    "leaf_group_name": "testAssetE",
                    "group_category_path": "character/testAsset",
                    "top_group_node": "character",
                    "mdl_work_status": "check",
                    "mdl_approval_status": "check",
                    "mdl_submitted_at_utc": "2025-06-13T09:03:10.666356Z",
                    "rig_work_status": null,
                    "rig_approval_status": null,
                    "rig_submitted_at_utc": null,
                    "bld_work_status": null,
                    "bld_approval_status": null,
                    "bld_submitted_at_utc": null,
                    "dsn_work_status": null,
                    "dsn_approval_status": null,
                    "dsn_submitted_at_utc": null,
                    "ldv_work_status": "check",
                    "ldv_approval_status": "check",
                    "ldv_submitted_at_utc": "2025-06-13T06:54:12.152077Z"
                },
                {
                    "root": "assets",
                    "project": "potoodev",
                    "group_1": "testAssetF",
                    "relation": "com",
                    "leaf_group_name": "testAssetF",
                    "group_category_path": "character/testAsset",
                    "top_group_node": "character",
                    "mdl_work_status": "check",
                    "mdl_approval_status": "check",
                    "mdl_submitted_at_utc": "2023-02-08T11:34:52.20105Z",
                    "rig_work_status": null,
                    "rig_approval_status": null,
                    "rig_submitted_at_utc": null,
                    "bld_work_status": "cgsvOnHold",
                    "bld_approval_status": "check",
                    "bld_submitted_at_utc": "2022-10-05T14:08:04.331416Z",
                    "dsn_work_status": null,
                    "dsn_approval_status": null,
                    "dsn_submitted_at_utc": null,
                    "ldv_work_status": "check",
                    "ldv_approval_status": "check",
                    "ldv_submitted_at_utc": "2024-04-17T01:29:34.924279Z"
                },
                {
                    "root": "assets",
                    "project": "potoodev",
                    "group_1": "testAssetG",
                    "relation": "com",
                    "leaf_group_name": "testAssetG",
                    "group_category_path": "character/testAsset",
                    "top_group_node": "character",
                    "mdl_work_status": "check",
                    "mdl_approval_status": "check",
                    "mdl_submitted_at_utc": "2022-11-08T06:24:06.941178Z",
                    "rig_work_status": null,
                    "rig_approval_status": null,
                    "rig_submitted_at_utc": null,
                    "bld_work_status": "cgsvApproved",
                    "bld_approval_status": "dirApproved",
                    "bld_submitted_at_utc": "2022-07-19T05:44:51.61718Z",
                    "dsn_work_status": null,
                    "dsn_approval_status": null,
                    "dsn_submitted_at_utc": null,
                    "ldv_work_status": null,
                    "ldv_approval_status": null,
                    "ldv_submitted_at_utc": null
                },
                {
                    "root": "assets",
                    "project": "potoodev",
                    "group_1": "testAssetK",
                    "relation": "com",
                    "leaf_group_name": "testAssetK",
                    "group_category_path": "character/testAsset",
                    "top_group_node": "character",
                    "mdl_work_status": "svRetake",
                    "mdl_approval_status": "check",
                    "mdl_submitted_at_utc": "2024-11-20T04:12:02.102154Z",
                    "rig_work_status": null,
                    "rig_approval_status": null,
                    "rig_submitted_at_utc": null,
                    "bld_work_status": null,
                    "bld_approval_status": null,
                    "bld_submitted_at_utc": null,
                    "dsn_work_status": "check",
                    "dsn_approval_status": "check",
                    "dsn_submitted_at_utc": "2024-11-06T16:36:02.16955Z",
                    "ldv_work_status": null,
                    "ldv_approval_status": null,
                    "ldv_submitted_at_utc": null
                },
                {
                    "root": "assets",
                    "project": "potoodev",
                    "group_1": "testAssetR",
                    "relation": "com",
                    "leaf_group_name": "testAssetR",
                    "group_category_path": "character/testAsset",
                    "top_group_node": "character",
                    "mdl_work_status": "check",
                    "mdl_approval_status": "check",
                    "mdl_submitted_at_utc": "2025-06-13T09:11:30.622156Z",
                    "rig_work_status": null,
                    "rig_approval_status": null,
                    "rig_submitted_at_utc": null,
                    "bld_work_status": null,
                    "bld_approval_status": null,
                    "bld_submitted_at_utc": null,
                    "dsn_work_status": "check",
                    "dsn_approval_status": "check",
                    "dsn_submitted_at_utc": "2024-06-03T03:04:51.797343Z",
                    "ldv_work_status": null,
                    "ldv_approval_status": null,
                    "ldv_submitted_at_utc": null
                },
                {
                    "root": "assets",
                    "project": "potoodev",
                    "group_1": "tumugismallHero",
                    "relation": "com",
                    "leaf_group_name": "tumugismallHero",
                    "group_category_path": "character/tumugismall",
                    "top_group_node": "character",
                    "mdl_work_status": null,
                    "mdl_approval_status": null,
                    "mdl_submitted_at_utc": null,
                    "rig_work_status": null,
                    "rig_approval_status": null,
                    "rig_submitted_at_utc": null,
                    "bld_work_status": "review",
                    "bld_approval_status": "approved",
                    "bld_submitted_at_utc": "2020-08-26T06:24:04.772243Z",
                    "dsn_work_status": null,
                    "dsn_approval_status": null,
                    "dsn_submitted_at_utc": null,
                    "ldv_work_status": null,
                    "ldv_approval_status": null,
                    "ldv_submitted_at_utc": null
                },
                {
                    "root": "assets",
                    "project": "potoodev",
                    "group_1": "yuhataCasual",
                    "relation": "com",
                    "leaf_group_name": "yuhataCasual",
                    "group_category_path": "character/yuhata",
                    "top_group_node": "character",
                    "mdl_work_status": "leadApproved",
                    "mdl_approval_status": "dirReview",
                    "mdl_submitted_at_utc": "2021-06-01T01:32:26.621396Z",
                    "rig_work_status": null,
                    "rig_approval_status": null,
                    "rig_submitted_at_utc": null,
                    "bld_work_status": "review",
                    "bld_approval_status": "approved",
                    "bld_submitted_at_utc": "2020-08-26T06:24:48.019132Z",
                    "dsn_work_status": null,
                    "dsn_approval_status": null,
                    "dsn_submitted_at_utc": null,
                    "ldv_work_status": null,
                    "ldv_approval_status": null,
                    "ldv_submitted_at_utc": null
                }
            ]
        },
        {
            "top_group_node": "creature",
            "items": [
                {
                    "root": "assets",
                    "project": "potoodev",
                    "group_1": "gaunaIntellectHero",
                    "relation": "com",
                    "leaf_group_name": "gaunaIntellectHero",
                    "group_category_path": "creature/gaunaIntellect",
                    "top_group_node": "creature",
                    "mdl_work_status": null,
                    "mdl_approval_status": null,
                    "mdl_submitted_at_utc": null,
                    "rig_work_status": null,
                    "rig_approval_status": null,
                    "rig_submitted_at_utc": null,
                    "bld_work_status": "review",
                    "bld_approval_status": "approved",
                    "bld_submitted_at_utc": "2020-08-26T06:19:02.016899Z",
                    "dsn_work_status": null,
                    "dsn_approval_status": null,
                    "dsn_submitted_at_utc": null,
                    "ldv_work_status": null,
                    "ldv_approval_status": null,
                    "ldv_submitted_at_utc": null
                }
            ]
        },
        {
            "top_group_node": "fx",
            "items": [
                {
                    "root": "assets",
                    "project": "potoodev",
                    "group_1": "fx",
                    "relation": "test",
                    "leaf_group_name": "fx",
                    "group_category_path": "fx/fx",
                    "top_group_node": "fx",
                    "mdl_work_status": null,
                    "mdl_approval_status": null,
                    "mdl_submitted_at_utc": null,
                    "rig_work_status": null,
                    "rig_approval_status": null,
                    "rig_submitted_at_utc": null,
                    "bld_work_status": null,
                    "bld_approval_status": null,
                    "bld_submitted_at_utc": null,
                    "dsn_work_status": null,
                    "dsn_approval_status": null,
                    "dsn_submitted_at_utc": null,
                    "ldv_work_status": null,
                    "ldv_approval_status": null,
                    "ldv_submitted_at_utc": null
                },
                {
                    "root": "assets",
                    "project": "potoodev",
                    "group_1": "hypSpeFxJyushi",
                    "relation": "com",
                    "leaf_group_name": "hypSpeFxJyushi",
                    "group_category_path": "fx/hypnosisSpeakerFx",
                    "top_group_node": "fx",
                    "mdl_work_status": null,
                    "mdl_approval_status": null,
                    "mdl_submitted_at_utc": null,
                    "rig_work_status": null,
                    "rig_approval_status": null,
                    "rig_submitted_at_utc": null,
                    "bld_work_status": null,
                    "bld_approval_status": null,
                    "bld_submitted_at_utc": null,
                    "dsn_work_status": null,
                    "dsn_approval_status": null,
                    "dsn_submitted_at_utc": null,
                    "ldv_work_status": null,
                    "ldv_approval_status": null,
                    "ldv_submitted_at_utc": null
                }
            ]
        },
        {
            "top_group_node": "light",
            "items": [
                {
                    "root": "assets",
                    "project": "potoodev",
                    "group_1": "chrLightRim",
                    "relation": "com",
                    "leaf_group_name": "chrLightRim",
                    "group_category_path": "light/chrLight",
                    "top_group_node": "light",
                    "mdl_work_status": null,
                    "mdl_approval_status": null,
                    "mdl_submitted_at_utc": null,
                    "rig_work_status": null,
                    "rig_approval_status": null,
                    "rig_submitted_at_utc": null,
                    "bld_work_status": "review",
                    "bld_approval_status": "review",
                    "bld_submitted_at_utc": "2020-08-26T06:17:49.438201Z",
                    "dsn_work_status": null,
                    "dsn_approval_status": null,
                    "dsn_submitted_at_utc": null,
                    "ldv_work_status": null,
                    "ldv_approval_status": null,
                    "ldv_submitted_at_utc": null
                }
            ]
        },
        {
            "top_group_node": "prop",
            "items": [
                {
                    "root": "assets",
                    "project": "potoodev",
                    "group_1": "hypMicDice",
                    "relation": "com",
                    "leaf_group_name": "hypMicDice",
                    "group_category_path": "prop/hypnosisMicrophone",
                    "top_group_node": "prop",
                    "mdl_work_status": null,
                    "mdl_approval_status": null,
                    "mdl_submitted_at_utc": null,
                    "rig_work_status": null,
                    "rig_approval_status": null,
                    "rig_submitted_at_utc": null,
                    "bld_work_status": "check",
                    "bld_approval_status": "check",
                    "bld_submitted_at_utc": "2022-07-21T08:08:51.058035Z",
                    "dsn_work_status": null,
                    "dsn_approval_status": null,
                    "dsn_submitted_at_utc": null,
                    "ldv_work_status": null,
                    "ldv_approval_status": null,
                    "ldv_submitted_at_utc": null
                },
                {
                    "root": "assets",
                    "project": "potoodev",
                    "group_1": "hypSpeNemu",
                    "relation": "com",
                    "leaf_group_name": "hypSpeNemu",
                    "group_category_path": "prop/hypnosisSpeaker",
                    "top_group_node": "prop",
                    "mdl_work_status": "check",
                    "mdl_approval_status": "check",
                    "mdl_submitted_at_utc": "2022-11-07T08:45:07.003662Z",
                    "rig_work_status": null,
                    "rig_approval_status": null,
                    "rig_submitted_at_utc": null,
                    "bld_work_status": null,
                    "bld_approval_status": null,
                    "bld_submitted_at_utc": null,
                    "dsn_work_status": null,
                    "dsn_approval_status": null,
                    "dsn_submitted_at_utc": null,
                    "ldv_work_status": null,
                    "ldv_approval_status": null,
                    "ldv_submitted_at_utc": null
                },
                {
                    "root": "assets",
                    "project": "potoodev",
                    "group_1": "samplePropA",
                    "relation": "com",
                    "leaf_group_name": "samplePropA",
                    "group_category_path": "prop/sample",
                    "top_group_node": "prop",
                    "mdl_work_status": "check",
                    "mdl_approval_status": "check",
                    "mdl_submitted_at_utc": "2023-06-15T04:52:40.760612Z",
                    "rig_work_status": null,
                    "rig_approval_status": null,
                    "rig_submitted_at_utc": null,
                    "bld_work_status": null,
                    "bld_approval_status": null,
                    "bld_submitted_at_utc": null,
                    "dsn_work_status": null,
                    "dsn_approval_status": null,
                    "dsn_submitted_at_utc": null,
                    "ldv_work_status": null,
                    "ldv_approval_status": null,
                    "ldv_submitted_at_utc": null
                }
            ]
        }
    ],
    "has_next": true,
    "has_prev": true,
    "page": 2,
    "page_last": 3,
    "per_page": 15,
    "project": "potoodev",
    "root": "assets",
    "sort": "group_1",
    "total": 33,
    "view": "grouped"
}